<?xml version="1.0" encoding="UTF-8" standalone="no"?>
<!-- Created with Inkscape (http://www.inkscape.org/) -->

<svg
   xmlns:dc="http://purl.org/dc/elements/1.1/"
   xmlns:cc="http://creativecommons.org/ns#"
   xmlns:rdf="http://www.w3.org/1999/02/22-rdf-syntax-ns#"
   xmlns:svg="http://www.w3.org/2000/svg"
   xmlns="http://www.w3.org/2000/svg"
   xmlns:sodipodi="http://sodipodi.sourceforge.net/DTD/sodipodi-0.dtd"
   xmlns:inkscape="http://www.inkscape.org/namespaces/inkscape"
   width="200"
   height="200"
   id="svg2"
   version="1.1"
   inkscape:version="0.48.4 r9939"
   sodipodi:docname="shiftknob.svg"
   inkscape:export-filename="E:\courses\1045 - Javascript\project\images\shiftknob.png"
   inkscape:export-xdpi="90"
   inkscape:export-ydpi="90">
  <defs
     id="defs4" />
  <sodipodi:namedview
     id="base"
     pagecolor="#ffffff"
     bordercolor="#666666"
     borderopacity="1.0"
     inkscape:pageopacity="0.0"
     inkscape:pageshadow="2"
     inkscape:zoom="1.43"
     inkscape:cx="375"
     inkscape:cy="44.475524"
     inkscape:document-units="px"
     inkscape:current-layer="layer3"
     showgrid="false"
     inkscape:window-width="1920"
     inkscape:window-height="1001"
     inkscape:window-x="-9"
     inkscape:window-y="-9"
     inkscape:window-maximized="1" />
  <metadata
     id="metadata7">
    <rdf:RDF>
      <cc:Work
         rdf:about="">
        <dc:format>image/svg+xml</dc:format>
        <dc:type
           rdf:resource="http://purl.org/dc/dcmitype/StillImage" />
        <dc:title></dc:title>
      </cc:Work>
    </rdf:RDF>
  </metadata>
  <g
     inkscape:label="Layer 1"
     inkscape:groupmode="layer"
     id="layer1"
     transform="translate(0,-852.36218)"
     sodipodi:insensitive="true">
    <path
       sodipodi:type="arc"
       style="fill:#000000;fill-opacity:1;stroke:none"
       id="path2985"
       sodipodi:cx="103.14685"
       sodipodi:cy="98.601402"
       sodipodi:rx="91.958038"
       sodipodi:ry="80.419579"
       d="m 195.10489,98.601402 a 91.958038,80.419579 0 1 1 -183.916078,0 91.958038,80.419579 0 1 1 183.916078,0 z"
       transform="matrix(1.0874525,0,0,1.2434783,-12.167302,829.75348)" />
  </g>
  <g
     inkscape:groupmode="layer"
     id="layer2"
     inkscape:label="ring"
     sodipodi:insensitive="true">
    <path
       sodipodi:type="arc"
       style="fill:#f9f9f9;fill-opacity:1;stroke:none"
       id="path2988"
       sodipodi:cx="106.29371"
       sodipodi:cy="97.552444"
       sodipodi:rx="65.034966"
       sodipodi:ry="51.398602"
       d="m 171.32867,97.552444 a 65.034966,51.398602 0 1 1 -130.069927,0 65.034966,51.398602 0 1 1 130.069927,0 z"
       transform="matrix(1.4607527,0,0,1.8482993,-55.268819,-80.306116)" />
  </g>
  <g
     inkscape:groupmode="layer"
     id="layer3"
     inkscape:label="lines">
    <rect
       style="fill:#000000;fill-opacity:1;stroke:none"
       id="rect2993"
       width="90"
       height="5"
       x="55"
       y="95" />
    <rect
       style="fill:#000000;fill-opacity:1;stroke:none"
       id="rect2995"
       width="5"
       height="40"
       x="55"
       y="55" />
    <rect
       style="fill:#000000;fill-opacity:1;stroke:none"
       id="rect2995-1"
       width="5"
       height="40"
       x="100"
       y="55" />
    <rect
       style="fill:#000000;fill-opacity:1;stroke:none"
       id="rect2995-7"
       width="5"
       height="40"
       x="140"
       y="55" />
    <rect
       style="fill:#000000;fill-opacity:1;stroke:none"
       id="rect2995-4"
       width="5"
       height="40"
       x="54.999996"
       y="100" />
    <rect
       style="fill:#000000;fill-opacity:1;stroke:none"
       id="rect2995-1-0"
       width="5"
       height="40"
       x="99.999992"
       y="100" />
    <path
       sodipodi:type="arc"
       style="fill:#000000;fill-opacity:1;stroke:none"
       id="path3046"
       sodipodi:cx="56.993008"
       sodipodi:cy="54.195805"
       sodipodi:rx="12.237762"
       sodipodi:ry="9.4405594"
       d="m 69.23077,54.195805 a 12.237762,9.4405594 0 1 1 -24.475525,0 12.237762,9.4405594 0 1 1 24.475525,0 z"
       transform="matrix(0.81714284,0,0,1.0592593,10.428572,-7.4074104)" />
    <path
       sodipodi:type="arc"
       style="fill:#000000;fill-opacity:1;stroke:none"
       id="path3046-4"
       sodipodi:cx="56.993008"
       sodipodi:cy="54.195805"
       sodipodi:rx="12.237762"
       sodipodi:ry="9.4405594"
       d="m 69.23077,54.195805 a 12.237762,9.4405594 0 1 1 -24.475525,0 12.237762,9.4405594 0 1 1 24.475525,0 z"
       transform="matrix(0.81714284,0,0,1.0592593,55.428572,-7.4074104)" />
    <path
       sodipodi:type="arc"
       style="fill:#000000;fill-opacity:1;stroke:none"
       id="path3046-8"
       sodipodi:cx="56.993008"
       sodipodi:cy="54.195805"
       sodipodi:rx="12.237762"
       sodipodi:ry="9.4405594"
       d="m 69.23077,54.195805 a 12.237762,9.4405594 0 1 1 -24.475525,0 12.237762,9.4405594 0 1 1 24.475525,0 z"
       transform="matrix(0.81714284,0,0,1.0592593,95.428572,-7.4074104)" />
    <path
       sodipodi:type="arc"
       style="fill:#000000;fill-opacity:1;stroke:none"
       id="path3046-82"
       sodipodi:cx="56.993008"
       sodipodi:cy="54.195805"
       sodipodi:rx="12.237762"
       sodipodi:ry="9.4405594"
       d="m 69.23077,54.195805 a 12.237762,9.4405594 0 1 1 -24.475525,0 12.237762,9.4405594 0 1 1 24.475525,0 z"
       transform="matrix(0.81714284,0,0,1.0592593,10.428572,87.59259)" />
    <path
       sodipodi:type="arc"
       style="fill:#000000;fill-opacity:1;stroke:none"
       id="path3046-82-4"
       sodipodi:cx="56.993008"
       sodipodi:cy="54.195805"
       sodipodi:rx="12.237762"
       sodipodi:ry="9.4405594"
       d="m 69.23077,54.195805 a 12.237762,9.4405594 0 1 1 -24.475525,0 12.237762,9.4405594 0 1 1 24.475525,0 z"
       transform="matrix(0.81714284,0,0,1.0592593,55.428572,87.59259)" />
  </g>
</svg>
