<?xml version="1.0" encoding="UTF-8" standalone="no"?>
<!-- Created with Inkscape (http://www.inkscape.org/) -->

<svg
   xmlns:dc="http://purl.org/dc/elements/1.1/"
   xmlns:cc="http://creativecommons.org/ns#"
   xmlns:rdf="http://www.w3.org/1999/02/22-rdf-syntax-ns#"
   xmlns:svg="http://www.w3.org/2000/svg"
   xmlns="http://www.w3.org/2000/svg"
   xmlns:sodipodi="http://sodipodi.sourceforge.net/DTD/sodipodi-0.dtd"
   xmlns:inkscape="http://www.inkscape.org/namespaces/inkscape"
   width="500"
   height="500"
   id="svg2"
   version="1.1"
   inkscape:version="0.48.4 r9939"
   sodipodi:docname="track_grass.svg">
  <defs
     id="defs4" />
  <sodipodi:namedview
     id="base"
     pagecolor="#ffffff"
     bordercolor="#666666"
     borderopacity="1.0"
     inkscape:pageopacity="0.0"
     inkscape:pageshadow="2"
     inkscape:zoom="1.24"
     inkscape:cx="109.99976"
     inkscape:cy="253.97921"
     inkscape:document-units="px"
     inkscape:current-layer="layer2"
     showgrid="false"
     inkscape:window-width="1674"
     inkscape:window-height="922"
     inkscape:window-x="32"
     inkscape:window-y="32"
     inkscape:window-maximized="0" />
  <metadata
     id="metadata7">
    <rdf:RDF>
      <cc:Work
         rdf:about="">
        <dc:format>image/svg+xml</dc:format>
        <dc:type
           rdf:resource="http://purl.org/dc/dcmitype/StillImage" />
        <dc:title></dc:title>
      </cc:Work>
    </rdf:RDF>
  </metadata>
  <g
     inkscape:groupmode="layer"
     id="layer2"
     inkscape:label="grass">
    <rect
       style="fill:#0000ff;fill-opacity:1;stroke:none"
       id="rect2989"
       width="500"
       height="500"
       x="0"
       y="1.2110149e-007" />
  </g>
  <g
     inkscape:groupmode="layer"
     id="layer3"
     inkscape:label="road">
    <rect
       style="fill:#1a1a1a;fill-opacity:1;stroke:none"
       id="rect3771"
       width="500"
       height="365"
       x="-537.90326"
       y="55.806438" />
  </g>
  <g
     inkscape:groupmode="layer"
     id="layer4"
     inkscape:label="markings">
    <rect
       style="fill:#f9f9f9;fill-opacity:1;stroke:none"
       id="rect3774"
       width="125"
       height="20"
       x="-457.90323"
       y="215.48387" />
    <rect
       style="fill:#f9f9f9;fill-opacity:1;stroke:none"
       id="rect3774-2"
       width="125"
       height="20"
       x="-237.90321"
       y="215.48387" />
    <rect
       style="fill:#f9f9f9;fill-opacity:1;stroke:none"
       id="rect3812"
       width="500"
       height="34"
       x="-537.90326"
       y="21.483871" />
    <rect
       style="fill:#f9f9f9;fill-opacity:1;stroke:none"
       id="rect3812-3"
       width="500"
       height="34"
       x="-537.90326"
       y="421.48389" />
    <rect
       style="fill:#d40000;fill-opacity:1;stroke:none"
       id="rect3832"
       width="50"
       height="34"
       x="-487.90323"
       y="21.483871" />
    <rect
       style="fill:#d40000;fill-opacity:1;stroke:none"
       id="rect3832-1"
       width="50"
       height="34"
       x="-387.90323"
       y="21.483871" />
    <rect
       style="fill:#d40000;fill-opacity:1;stroke:none"
       id="rect3832-6"
       width="50"
       height="34"
       x="-287.90323"
       y="21.483871" />
    <rect
       style="fill:#d40000;fill-opacity:1;stroke:none"
       id="rect3832-8"
       width="50"
       height="34"
       x="-187.90321"
       y="21.483871" />
    <rect
       style="fill:#d40000;fill-opacity:1;stroke:none"
       id="rect3832-82"
       width="50"
       height="34"
       x="-87.903229"
       y="21.483871" />
    <rect
       style="fill:#d40000;fill-opacity:1;stroke:none"
       id="rect3832-7"
       width="50"
       height="34"
       x="-487.90323"
       y="421.48389" />
    <rect
       style="fill:#d40000;fill-opacity:1;stroke:none"
       id="rect3832-71"
       width="50"
       height="34"
       x="-387.90323"
       y="421.48389" />
    <rect
       style="fill:#d40000;fill-opacity:1;stroke:none"
       id="rect3832-2"
       width="50"
       height="34"
       x="-287.90323"
       y="421.48389" />
    <rect
       style="fill:#d40000;fill-opacity:1;stroke:none"
       id="rect3832-60"
       width="50"
       height="34"
       x="-187.90321"
       y="421.48389" />
    <rect
       style="fill:#d40000;fill-opacity:1;stroke:none"
       id="rect3832-4"
       width="50"
       height="34"
       x="-87.903229"
       y="421.48389" />
  </g>
</svg>
